module gitlab.yoshino-s.xyz/yoshino-s/cilium-envoy-hook

go 1.18

require (
	github.com/cilium/cilium v1.13.4
	github.com/cilium/proxy v0.0.0-20230605062201-ca87bee70e40
	github.com/oklog/run v1.1.0
)

require (
	github.com/asaskevich/govalidator v0.0.0-20210307081110-f21760c49a8d // indirect
	github.com/beorn7/perks v1.0.1 // indirect
	github.com/blang/semver/v4 v4.0.0 // indirect
	github.com/census-instrumentation/opencensus-proto v0.3.0 // indirect
	github.com/cespare/xxhash/v2 v2.1.2 // indirect
	github.com/cncf/xds/go v0.0.0-20211130200136-a8f946100490 // indirect
	github.com/davecgh/go-spew v1.1.1 // indirect
	github.com/envoyproxy/protoc-gen-validate v0.6.2 // indirect
	github.com/fsnotify/fsnotify v1.6.0 // indirect
	github.com/go-logr/logr v1.2.3 // indirect
	github.com/go-logr/stdr v1.2.2 // indirect
	github.com/go-ole/go-ole v1.2.6 // indirect
	github.com/go-openapi/analysis v0.21.4 // indirect
	github.com/go-openapi/errors v0.20.3 // indirect
	github.com/go-openapi/jsonpointer v0.19.5 // indirect
	github.com/go-openapi/jsonreference v0.20.0 // indirect
	github.com/go-openapi/loads v0.21.2 // indirect
	github.com/go-openapi/runtime v0.25.0 // indirect
	github.com/go-openapi/spec v0.20.7 // indirect
	github.com/go-openapi/strfmt v0.21.3 // indirect
	github.com/go-openapi/swag v0.22.3 // indirect
	github.com/go-openapi/validate v0.22.0 // indirect
	github.com/gogo/protobuf v1.3.2 // indirect
	github.com/golang/groupcache v0.0.0-20210331224755-41bb18bfe9da // indirect
	github.com/golang/protobuf v1.5.2 // indirect
	github.com/google/go-cmp v0.5.9 // indirect
	github.com/google/gofuzz v1.2.0 // indirect
	github.com/hashicorp/hcl v1.0.0 // indirect
	github.com/inconshreveable/mousetrap v1.1.0 // indirect
	github.com/josharian/intern v1.0.0 // indirect
	github.com/json-iterator/go v1.1.12 // indirect
	github.com/kr/pretty v0.3.1 // indirect
	github.com/kr/text v0.2.0 // indirect
	github.com/lufia/plan9stats v0.0.0-20211012122336-39d0f177ccd0 // indirect
	github.com/magiconair/properties v1.8.6 // indirect
	github.com/mailru/easyjson v0.7.7 // indirect
	github.com/matttproud/golang_protobuf_extensions v1.0.2 // indirect
	github.com/mitchellh/mapstructure v1.5.0 // indirect
	github.com/modern-go/concurrent v0.0.0-20180306012644-bacd9c7ef1dd // indirect
	github.com/modern-go/reflect2 v1.0.2 // indirect
	github.com/oklog/ulid v1.3.1 // indirect
	github.com/opentracing/opentracing-go v1.2.1-0.20220228012449-10b1cf09e00b // indirect
	github.com/pelletier/go-toml v1.9.5 // indirect
	github.com/pelletier/go-toml/v2 v2.0.5 // indirect
	github.com/petermattis/goid v0.0.0-20180202154549-b0b1615b78e5 // indirect
	github.com/pmezard/go-difflib v1.0.0 // indirect
	github.com/power-devops/perfstat v0.0.0-20210106213030-5aafc221ea8c // indirect
	github.com/prometheus/client_golang v1.14.0 // indirect
	github.com/prometheus/client_model v0.3.0 // indirect
	github.com/prometheus/common v0.37.0 // indirect
	github.com/prometheus/procfs v0.8.0 // indirect
	github.com/rogpeppe/go-internal v1.9.0 // indirect
	github.com/sasha-s/go-deadlock v0.3.1 // indirect
	github.com/shirou/gopsutil/v3 v3.22.10 // indirect
	github.com/sirupsen/logrus v1.9.0 // indirect
	github.com/spf13/afero v1.9.2 // indirect
	github.com/spf13/cast v1.5.0 // indirect
	github.com/spf13/jwalterweatherman v1.1.0 // indirect
	github.com/spf13/pflag v1.0.5 // indirect
	github.com/spf13/viper v1.14.0 // indirect
	github.com/subosito/gotenv v1.4.1 // indirect
	github.com/vishvananda/netlink v1.2.1-beta.2.0.20220608195807-1a118fe229fc // indirect
	github.com/vishvananda/netns v0.0.0-20211101163701-50045581ed74 // indirect
	github.com/yusufpapurcu/wmi v1.2.2 // indirect
	go.mongodb.org/mongo-driver v1.10.0 // indirect
	go.opentelemetry.io/otel v1.11.2 // indirect
	go.opentelemetry.io/otel/trace v1.11.2 // indirect
	golang.org/x/exp v0.0.0-20221106115401-f9659909a136 // indirect
	golang.org/x/net v0.7.0 // indirect
	golang.org/x/oauth2 v0.0.0-20221014153046-6fdb5e3db783 // indirect
	golang.org/x/sync v0.1.0 // indirect
	golang.org/x/sys v0.5.0 // indirect
	golang.org/x/term v0.5.0 // indirect
	golang.org/x/text v0.7.0 // indirect
	golang.org/x/time v0.2.0 // indirect
	gomodules.xyz/jsonpatch/v3 v3.0.1 // indirect
	gomodules.xyz/orderedmap v0.1.0 // indirect
	google.golang.org/appengine v1.6.7 // indirect
	google.golang.org/protobuf v1.28.1 // indirect
	gopkg.in/inf.v0 v0.9.1 // indirect
	gopkg.in/ini.v1 v1.67.0 // indirect
	gopkg.in/yaml.v2 v2.4.0 // indirect
	gopkg.in/yaml.v3 v3.0.1 // indirect
	k8s.io/api v0.26.4 // indirect
	k8s.io/client-go v0.26.4 // indirect
	k8s.io/klog/v2 v2.80.1 // indirect
	k8s.io/utils v0.0.0-20221107191617-1a15be271d1d // indirect
	sigs.k8s.io/json v0.0.0-20220713155537-f223a00ba0e2 // indirect
	sigs.k8s.io/structured-merge-diff/v4 v4.2.3 // indirect
	sigs.k8s.io/yaml v1.3.0 // indirect
)

require (
	github.com/slok/kubewebhook/v2 v2.5.0
	github.com/spf13/cobra v1.7.0
	go.uber.org/atomic v1.11.0 // indirect
	go.uber.org/multierr v1.11.0 // indirect
	go.uber.org/zap v1.24.0
	k8s.io/apimachinery v0.26.4
)
